{"page":1,"per_page":6,"total":12,"total_pages":2,"data":[{"id":1,"description":"Corner, Custom colors available","name":"La-Z-Boy","last_name":"Aspen Sectional Sofa","imageUrl":"https://content.la-z-boy.com/Images/product/categoryalt/sectional/small/xxs_723_alt.jpg"},{"id":2,"description":"For a new spin on style and some versatility, a fully-rotating swivel makes the most of any space","name":"La-Z-Boy","last_name":"Swivel","imageUrl":"https://content.la-z-boy.com/Images/clp/chairs/subcategories/swivel01.jpg"},{"id":3,"description":"Serve up extra style and storage with unique and useful tables","name":"La-Z-Boy","last_name":"Tables","imageUrl":"https://content.la-z-boy.com/Images/clp/home-accents/subcategories/tables01.jpg"},{"id":4,"description":"Create a restful retreat that you look forward to waking up to","name":"La-Z-Boy","last_name":"Beds","imageUrl":"https://content.la-z-boy.com/Images/clp/bedroom/subcategories/beds01.jpg"},{"id":5,"description":"Casual comfort, contemporary style and several ways to relax. Rock when you’re not reclining with a smooth, graceful motion","name":"La-Z-Boy","last_name":"Rocking","imageUrl":"https://content.la-z-boy.com/Images/clp/recliners/subcategories/rocking01.jpg"},{"id":6,"description":"Set a beautiful tone for meals and memories with timeless designs that last","name":"La-Z-Boy","last_name":"Dining Tables","imageUrl":"https://content.la-z-boy.com/Images/clp/kitchen-dining/subcategories/tables01.jpg"}],"support":{"url":"https://reqres.in/#support-heading","text":"To keep ReqRes free, contributions towards server costs are appreciated!"}}
